{
  "page": 1,
  "total_results": 19770,
  "total_pages": 989,
  "results": [
      {
          "vote_count": 4385,
          "id": 346364,
          "video": false,
          "vote_average": 7.2,
          "title": "It",
          "popularity": 995.18693,
          "poster_path": "/9E2y5Q7WlCVNEhP5GiVTjhEhx1o.jpg",
          "original_language": "en",
          "original_title": "It",
          "genre_ids": [
              18,
              14,
              27,
              53
          ],
          "backdrop_path": "/tcheoA2nPATCm2vvXw2hVQoaEFD.jpg",
          "adult": false,
          "overview": "In a small town in Maine, seven children known as The Losers Club come face to face with life problems, bullies and a monster that takes the shape of a clown called Pennywise.",
          "release_date": "2017-09-05"
      },
      {
          "vote_count": 2398,
          "id": 284053,
          "video": false,
          "vote_average": 7.5,
          "title": "Thor: Ragnarok",
          "popularity": 769.541512,
          "poster_path": "/oSLd5GYGsiGgzDPKTwQh7wamO8t.jpg",
          "original_language": "en",
          "original_title": "Thor: Ragnarok",
          "genre_ids": [
              28,
              12,
              35,
              14,
              878
          ],
          "backdrop_path": "/5wNUJs23rT5rTBacNyf5h83AynM.jpg",
          "adult": false,
          "overview": "Thor is imprisoned on the other side of the universe and finds himself in a race against time to get back to Asgard to stop Ragnarok, the prophecy of destruction to his homeworld and the end of Asgardian civilization, at the hands of an all-powerful new threat, the ruthless Hela.",
          "release_date": "2017-10-25"
      },
      {
          "vote_count": 148,
          "id": 347882,
          "video": false,
          "vote_average": 5.5,
          "title": "Sleight",
          "popularity": 620.764537,
          "poster_path": "/wridRvGxDqGldhzAIh3IcZhHT5F.jpg",
          "original_language": "en",
          "original_title": "Sleight",
          "genre_ids": [
              18,
              53,
              28,
              878
          ],
          "backdrop_path": "/2SEgJ0mHJ7TSdVDbkGU061tR33K.jpg",
          "adult": false,
          "overview": "A young street magician is left to take care of his little sister after his mother's passing and turns to drug dealing in the Los Angeles party scene to keep a roof over their heads. When he gets into trouble with his supplier, his sister is kidnapped and he is forced to rely on both his sleight of hand and brilliant mind to save her.",
          "release_date": "2017-04-28"
      },
      {
          "vote_count": 1584,
          "id": 141052,
          "video": false,
          "vote_average": 6.6,
          "title": "Justice League",
          "popularity": 599.736276,
          "poster_path": "/9rtrRGeRnL0JKtu9IMBWsmlmmZz.jpg",
          "original_language": "en",
          "original_title": "Justice League",
          "genre_ids": [
              28,
              12,
              14,
              878
          ],
          "backdrop_path": "/o5T8rZxoWSBMYwjsUFUqTt6uMQB.jpg",
          "adult": false,
          "overview": "Fueled by his restored faith in humanity and inspired by Superman's selfless act, Bruce Wayne and Diana Prince assemble a team of metahumans consisting of Barry Allen, Arthur Curry, and Victor Stone to face the catastrophic threat of Steppenwolf and the Parademons who are on the hunt for three Mother Boxes on Earth.",
          "release_date": "2017-11-15"
      },
      {
          "vote_count": 2718,
          "id": 8844,
          "video": false,
          "vote_average": 6.9,
          "title": "Jumanji",
          "popularity": 563.19885,
          "poster_path": "/8wBKXZNod4frLZjAKSDuAcQ2dEU.jpg",
          "original_language": "en",
          "original_title": "Jumanji",
          "genre_ids": [
              12,
              14,
              10751
          ],
          "backdrop_path": "/52lVqTDhIeNTjT7EiJuovXgw6iE.jpg",
          "adult": false,
          "overview": "When siblings Judy and Peter discover an enchanted board game that opens the door to a magical world, they unwittingly invite Alan -- an adult who's been trapped inside the game for 26 years -- into their living room. Alan's only hope for freedom is to finish the game, which proves risky as all three find themselves running from giant rhinoceroses, evil monkeys and other terrifying creatures.",
          "release_date": "1995-12-15"
      },
      {
          "vote_count": 5174,
          "id": 211672,
          "video": false,
          "vote_average": 6.4,
          "title": "Minions",
          "popularity": 500.846796,
          "poster_path": "/q0R4crx2SehcEEQEkYObktdeFy.jpg",
          "original_language": "en",
          "original_title": "Minions",
          "genre_ids": [
              10751,
              16,
              12,
              35
          ],
          "backdrop_path": "/qLmdjn2fv0FV2Mh4NBzMArdA0Uu.jpg",
          "adult": false,
          "overview": "Minions Stuart, Kevin and Bob are recruited by Scarlet Overkill, a super-villain who, alongside her inventor husband Herb, hatches a plot to take over the world.",
          "release_date": "2015-06-17"
      },
      {
          "vote_count": 307,
          "id": 419680,
          "video": false,
          "vote_average": 5.8,
          "title": "Daddy's Home 2",
          "popularity": 471.8992,
          "poster_path": "/rF2IoKL0IFmumEXQFUuB8LajTYP.jpg",
          "original_language": "en",
          "original_title": "Daddy's Home 2",
          "genre_ids": [
              18,
              35
          ],
          "backdrop_path": "/lMDyuHzBhx3zNAv48vYzmgcJCCD.jpg",
          "adult": false,
          "overview": "Brad and Dusty must deal with their intrusive fathers during the holidays.",
          "release_date": "2017-11-09"
      },
      {
          "vote_count": 634,
          "id": 392044,
          "video": false,
          "vote_average": 6.8,
          "title": "Murder on the Orient Express",
          "popularity": 412.496193,
          "poster_path": "/iBlfxlw8qwtUS0R8YjIU7JtM6LM.jpg",
          "original_language": "en",
          "original_title": "Murder on the Orient Express",
          "genre_ids": [
              80,
              18,
              9648
          ],
          "backdrop_path": "/tvKcA4OFUiZkNeTJmmTkNqKHMMg.jpg",
          "adult": false,
          "overview": "Genius Belgian detective Hercule Poirot investigates the murder of an American tycoon aboard the Orient Express train.",
          "release_date": "2017-11-03"
      },
      {
          "vote_count": 354,
          "id": 354912,
          "video": false,
          "vote_average": 7.8,
          "title": "Coco",
          "popularity": 334.257282,
          "poster_path": "/eKi8dIrr8voobbaGzDpe8w0PVbC.jpg",
          "original_language": "en",
          "original_title": "Coco",
          "genre_ids": [
              10751,
              16,
              12
          ],
          "backdrop_path": "/askg3SMvhqEl4OL52YuvdtY40Yb.jpg",
          "adult": false,
          "overview": "Despite his family’s baffling generations-old ban on music, Miguel dreams of becoming an accomplished musician like his idol, Ernesto de la Cruz. Desperate to prove his talent, Miguel finds himself in the stunning and colorful Land of the Dead following a mysterious chain of events. Along the way, he meets charming trickster Hector, and together, they set off on an extraordinary journey to unlock the real story behind Miguel's family history.",
          "release_date": "2017-10-27"
      },
      {
          "vote_count": 2563,
          "id": 281338,
          "video": false,
          "vote_average": 6.7,
          "title": "War for the Planet of the Apes",
          "popularity": 308.904803,
          "poster_path": "/3vYhLLxrTtZLysXtIWktmd57Snv.jpg",
          "original_language": "en",
          "original_title": "War for the Planet of the Apes",
          "genre_ids": [
              18,
              878,
              10752
          ],
          "backdrop_path": "/ulMscezy9YX0bhknvJbZoUgQxO5.jpg",
          "adult": false,
          "overview": "Caesar and his apes are forced into a deadly conflict with an army of humans led by a ruthless Colonel. After the apes suffer unimaginable losses, Caesar wrestles with his darker instincts and begins his own mythic quest to avenge his kind. As the journey finally brings them face to face, Caesar and the Colonel are pitted against each other in an epic battle that will determine the fate of both their species and the future of the planet.",
          "release_date": "2017-07-11"
      },
      {
          "vote_count": 6211,
          "id": 321612,
          "video": false,
          "vote_average": 6.8,
          "title": "Beauty and the Beast",
          "popularity": 300.302016,
          "poster_path": "/tWqifoYuwLETmmasnGHO7xBjEtt.jpg",
          "original_language": "en",
          "original_title": "Beauty and the Beast",
          "genre_ids": [
              10751,
              14,
              10749
          ],
          "backdrop_path": "/6aUWe0GSl69wMTSWWexsorMIvwU.jpg",
          "adult": false,
          "overview": "A live-action adaptation of Disney's version of the classic tale of a cursed prince and a beautiful young woman who helps him break the spell.",
          "release_date": "2017-03-16"
      },
      {
          "vote_count": 103,
          "id": 399057,
          "video": false,
          "vote_average": 6.1,
          "title": "The Killing of a Sacred Deer",
          "popularity": 295.436878,
          "poster_path": "/e4DGlsc9g0h5AyoyvvAuIRnofN7.jpg",
          "original_language": "en",
          "original_title": "The Killing of a Sacred Deer",
          "genre_ids": [
              18,
              27,
              53
          ],
          "backdrop_path": "/854uDv6rzbwF82jOtFe931SMrRs.jpg",
          "adult": false,
          "overview": "A teenager's attempts to bring a brilliant surgeon into his dysfunctional family take an unexpected turn.",
          "release_date": "2017-10-20"
      },
      {
          "vote_count": 6307,
          "id": 297762,
          "video": false,
          "vote_average": 7.2,
          "title": "Wonder Woman",
          "popularity": 286.263255,
          "poster_path": "/imekS7f1OuHyUP2LAiTEM0zBzUz.jpg",
          "original_language": "en",
          "original_title": "Wonder Woman",
          "genre_ids": [
              28,
              12,
              14
          ],
          "backdrop_path": "/6iUNJZymJBMXXriQyFZfLAKnjO6.jpg",
          "adult": false,
          "overview": "An Amazon princess comes to the world of Man to become the greatest of the female superheroes.",
          "release_date": "2017-05-30"
      },
      {
          "vote_count": 5024,
          "id": 315635,
          "video": false,
          "vote_average": 7.3,
          "title": "Spider-Man: Homecoming",
          "popularity": 260.996939,
          "poster_path": "/ApYhuwBWzl29Oxe9JJsgL7qILbD.jpg",
          "original_language": "en",
          "original_title": "Spider-Man: Homecoming",
          "genre_ids": [
              28,
              12,
              35,
              878
          ],
          "backdrop_path": "/vc8bCGjdVp0UbMNLzHnHSLRbBWQ.jpg",
          "adult": false,
          "overview": "Following the events of Captain America: Civil War, Peter Parker, with the help of his mentor Tony Stark, tries to balance his life as an ordinary high school student in Queens, New York City, with fighting crime as his superhero alter ego Spider-Man as a new threat, the Vulture, emerges.",
          "release_date": "2017-07-05"
      },
      {
          "vote_count": 617,
          "id": 440021,
          "video": false,
          "vote_average": 6.4,
          "title": "Happy Death Day",
          "popularity": 253.163968,
          "poster_path": "/cTaEIUYTt52ooq9quVbAQ7NpGwo.jpg",
          "original_language": "en",
          "original_title": "Happy Death Day",
          "genre_ids": [
              27
          ],
          "backdrop_path": "/eGx5OfOdvM0gkHdmkLe3hcJuEIT.jpg",
          "adult": false,
          "overview": "A college student relives the day of her murder over and over again as she tries to discover her killer's identity.",
          "release_date": "2017-10-12"
      },
      {
          "vote_count": 6738,
          "id": 177572,
          "video": false,
          "vote_average": 7.8,
          "title": "Big Hero 6",
          "popularity": 239.546351,
          "poster_path": "/9gLu47Zw5ertuFTZaxXOvNfy78T.jpg",
          "original_language": "en",
          "original_title": "Big Hero 6",
          "genre_ids": [
              12,
              10751,
              16,
              28,
              35
          ],
          "backdrop_path": "/2BXd0t9JdVqCp9sKf6kzMkr7QjB.jpg",
          "adult": false,
          "overview": "The special bond that develops between plus-sized inflatable robot Baymax, and prodigy Hiro Hamada, who team up with a group of friends to form a band of high-tech heroes.",
          "release_date": "2014-10-24"
      },
      {
          "vote_count": 6012,
          "id": 245891,
          "video": false,
          "vote_average": 7,
          "title": "John Wick",
          "popularity": 207.612843,
          "poster_path": "/5vHssUeVe25bMrof1HyaPyWgaP.jpg",
          "original_language": "en",
          "original_title": "John Wick",
          "genre_ids": [
              28,
              53
          ],
          "backdrop_path": "/umC04Cozevu8nn3JTDJ1pc7PVTn.jpg",
          "adult": false,
          "overview": "Ex-hitman John Wick comes out of retirement to track down the gangsters that took everything from him.",
          "release_date": "2014-10-22"
      },
      {
          "vote_count": 53,
          "id": 371638,
          "video": false,
          "vote_average": 7.6,
          "title": "The Disaster Artist",
          "popularity": 205.839853,
          "poster_path": "/uCH6FOFsDW6pfvbbmIIswuvuNtM.jpg",
          "original_language": "en",
          "original_title": "The Disaster Artist",
          "genre_ids": [
              18,
              35,
              36
          ],
          "backdrop_path": "/bAI7aPHQcvSZXvt7L11kMJdS0Gm.jpg",
          "adult": false,
          "overview": "An aspiring actor in Hollywood meets an enigmatic stranger by the name of Tommy Wiseau, the meeting leads the actor down a path nobody could have predicted; creating the worst movie ever made.",
          "release_date": "2017-12-01"
      },
      {
          "vote_count": 1488,
          "id": 343668,
          "video": false,
          "vote_average": 7.2,
          "title": "Kingsman: The Golden Circle",
          "popularity": 200.458807,
          "poster_path": "/34xBL6BXNYFqtHO9zhcgoakS4aP.jpg",
          "original_language": "en",
          "original_title": "Kingsman: The Golden Circle",
          "genre_ids": [
              28,
              12,
              35
          ],
          "backdrop_path": "/uExPmkOHJySrbJyJDJylHDqaT58.jpg",
          "adult": false,
          "overview": "When an attack on the Kingsman headquarters takes place and a new villain rises, Eggsy and Merlin are forced to work together with the American agency known as the Statesman to save the world.",
          "release_date": "2017-09-20"
      },
      {
          "vote_count": 51,
          "id": 355547,
          "video": false,
          "vote_average": 4.5,
          "title": "The Star",
          "popularity": 196.772357,
          "poster_path": "/tEbDvivUfsCupngKIfMJJ725eAD.jpg",
          "original_language": "en",
          "original_title": "The Star",
          "genre_ids": [
              35,
              16,
              12
          ],
          "backdrop_path": "/iJ5dkwIHQnq8dfmwSLh7dpETNhi.jpg",
          "adult": false,
          "overview": "A small but brave donkey and his animal friends become the unsung heroes of the greatest story ever told, the first Christmas.",
          "release_date": "2017-11-15"
      }
  ]
}